<?xml version="1.0" encoding="utf-8"?>
<!-- Generator: Adobe Illustrator 16.0.0, SVG Export Plug-In . SVG Version: 6.00 Build 0)  -->
<!DOCTYPE svg PUBLIC "-//W3C//DTD SVG 1.1//EN" "http://www.w3.org/Graphics/SVG/1.1/DTD/svg11.dtd">
<svg version="1.1" id="Layer_1" xmlns="http://www.w3.org/2000/svg" xmlns:xlink="http://www.w3.org/1999/xlink" x="0px" y="0px"
	 width="216.896px" height="49px" viewBox="0 0 216.896 49" enable-background="new 0 0 216.896 49" xml:space="preserve">
<g>
	<g>
		<circle fill="#EDE68D" cx="23.574" cy="24.813" r="23.574"/>
	</g>
	<g>
		<rect x="22.074" y="39.792" fill="#4EA49E" width="3" height="5"/>
	</g>
	<g>
		
			<rect x="33.433" y="35.671" transform="matrix(0.7069 0.7073 -0.7073 0.7069 36.8231 -14.5214)" fill="#4EA49E" width="5.001" height="3"/>
	</g>
	<g>
		
			<rect x="34.433" y="9.953" transform="matrix(0.7068 0.7074 -0.7074 0.7068 19.3455 -21.7685)" fill="#4EA49E" width="3" height="4.999"/>
	</g>
	<polygon fill="#4EA49E" points="25.059,23.312 25.062,4.834 22.087,4.834 22.083,26.311 43.545,26.313 43.554,23.313 	"/>
	<g>
		
			<rect x="8.714" y="10.954" transform="matrix(0.7067 0.7075 -0.7075 0.7067 12.1 -4.2808)" fill="#4EA49E" width="4.998" height="3"/>
	</g>
	<g>
		<rect x="3.596" y="23.314" fill="#4EA49E" width="4.998" height="3"/>
	</g>
	<g>
		
			<rect x="9.715" y="34.674" transform="matrix(0.7069 0.7073 -0.7073 0.7069 29.5781 2.962)" fill="#4EA49E" width="3" height="4.998"/>
	</g>
</g>
<g>
	<g>
		<circle fill="#EDE68D" cx="22.443" cy="91.849" r="23.574"/>
	</g>
	<g>
		<rect x="20.943" y="106.827" fill="#4EA49E" width="3" height="5"/>
	</g>
	<g>
		
			<rect x="32.302" y="102.707" transform="matrix(0.7069 0.7073 -0.7073 0.7069 83.9061 5.9258)" fill="#4EA49E" width="5.001" height="3"/>
	</g>
	<g>
		
			<rect x="33.302" y="76.989" transform="matrix(0.7068 0.7074 -0.7074 0.7068 66.4375 -1.3123)" fill="#4EA49E" width="3" height="4.999"/>
	</g>
	<polygon fill="#4EA49E" points="23.928,90.348 23.93,71.87 20.956,71.87 20.952,93.347 42.414,93.349 42.422,90.349 	"/>
	<g>
		
			<rect x="7.583" y="77.99" transform="matrix(0.7067 0.7075 -0.7075 0.7067 59.1962 16.1799)" fill="#4EA49E" width="4.998" height="3"/>
	</g>
	<g>
		<rect x="2.465" y="90.35" fill="#4EA49E" width="4.998" height="3"/>
	</g>
	<g>
		
			<rect x="8.583" y="101.71" transform="matrix(0.7069 0.7073 -0.7073 0.7069 76.6592 23.4075)" fill="#4EA49E" width="3" height="4.998"/>
	</g>
</g>
<g>
	<g>
		<path fill="#EDE68D" d="M82.384,47.678v-1h3.999c0.996-1,1.933-1,2.799-2h-2.798v-1h3.82c0.584,0,1.135,0,1.633-1h-3.453v-1h4.094
			c0.386-1,0.738-1,1.052-2h-4.146v-1h4.559c0.25-1,0.479-1,0.665-1h-3.224v-1h3.45c0.142-1,0.254-1,0.335-2h-2.785v-1h2.883
			c0.035-1,0.064-0.994,0.064-1.43c0-0.145-0.018-0.57-0.021-0.57h-3.144l0,0h3.101c-0.047-1-0.121-1-0.229-2h-3.653v-1h3.45
			c-0.148-1-0.327-1-0.54-2h-3.91v-1h3.559c-0.268,0-0.575,0-0.911-1h-3.647v-1h3.094c-0.426-1-0.896-1-1.401-2h-3.692v-1h2.82
			c-0.698-1-1.451-1-2.257-1h-4.563v-1h2.999c-2.042-1-4.318-1.588-6.729-1.588c-8.658,0-15.679,6.992-15.679,15.651
			c0,8.658,7.021,15.646,15.679,15.646c1.583,0,3.111-0.709,4.552-0.709H82.384z"/>
	</g>
	<g>
		<path fill="#4EA49E" d="M83.501,39.381h-7.028v-0.74c0.208-0.014,0.533-0.044,0.975-0.089s0.746-0.092,0.913-0.141
			c0.215-0.069,0.38-0.183,0.495-0.339c0.114-0.156,0.172-0.392,0.172-0.704v-7.321h-2.597v-0.876h0.573
			c0.751,0,1.424-0.139,2.019-0.417c0.594-0.278,1.02-0.577,1.277-0.896h0.865c-0.021,0.452-0.042,0.98-0.062,1.585
			s-0.031,1.147-0.031,1.627v6.184c0,0.244,0.054,0.461,0.162,0.652c0.107,0.191,0.262,0.332,0.464,0.422
			c0.181,0.077,0.476,0.146,0.887,0.209c0.41,0.062,0.716,0.098,0.917,0.104V39.381z"/>
	</g>
</g>
<g>
	<g>
		<path fill="#EDE68D" d="M24.805,158.588v-1h3.999c0.996-1,1.933-1,2.799-2h-2.798v-1h3.82c0.584,0,1.135,0,1.633-1h-3.453v-1
			h4.094c0.386-1,0.738-1,1.052-2h-4.146v-1h4.559c0.25-1,0.479-1,0.665-1h-3.224v-1h3.45c0.142-1,0.254-1,0.335-2h-2.785v-1h2.883
			c0.035-1,0.064-0.994,0.064-1.43c0-0.145-0.018-0.57-0.021-0.57h-3.144l0,0h3.101c-0.047-1-0.121-1-0.229-2h-3.653v-1h3.45
			c-0.148-1-0.327-1-0.54-2h-3.91v-1h3.559c-0.268,0-0.575,0-0.911-1h-3.647v-1h3.094c-0.426-1-0.896-1-1.401-2h-3.692v-1h2.82
			c-0.698-1-1.451-1-2.257-1h-4.563v-1h2.999c-2.042-1-4.318-1.588-6.729-1.588c-8.658,0-15.679,6.992-15.679,15.651
			c0,8.658,7.021,15.646,15.679,15.646c1.583,0,3.111-0.709,4.552-0.709H24.805z"/>
	</g>
	<g>
		<path fill="#4EA49E" d="M25.922,150.291h-7.028v-0.74c0.208-0.014,0.533-0.044,0.975-0.089s0.746-0.092,0.913-0.141
			c0.215-0.069,0.38-0.183,0.495-0.339c0.114-0.156,0.172-0.392,0.172-0.704v-7.321h-2.597v-0.876h0.573
			c0.751,0,1.424-0.139,2.019-0.417c0.594-0.278,1.02-0.577,1.277-0.896h0.865c-0.021,0.452-0.042,0.98-0.062,1.585
			s-0.031,1.147-0.031,1.627v6.184c0,0.244,0.054,0.461,0.162,0.652c0.107,0.191,0.262,0.332,0.464,0.422
			c0.181,0.077,0.476,0.146,0.887,0.209c0.41,0.062,0.716,0.098,0.917,0.104V150.291z"/>
	</g>
</g>
<g>
	<path fill="#EDE68D" d="M141.107,38.105l5.298-1.217c-0.582,2.134-1.611,4.089-2.975,5.751L141.107,38.105z"/>
	<path fill="#EDE68D" d="M146.962,32.738c0,0.781-0.06,1.553-0.171,2.299l-8.967,2.057c-0.36,0.712-0.737,1.389-1.122,2.023
		l2.683-0.617l2.802,5.494c-2.819,2.735-6.659,4.425-10.903,4.425c-4.706,0-8.923-2.075-11.796-5.358l7.904-1.811
		c-0.344-0.479-0.694-0.984-1.037-1.523l-8.023,1.842c-1.724-2.512-2.727-5.555-2.727-8.83c0-8.657,7.021-15.68,15.679-15.68
		S146.962,24.081,146.962,32.738z"/>
	<path fill="#4EA49E" d="M131.283,21.518c-4.251,0-7.698,3.111-7.698,6.943c0,4.227,1.98,8.152,3.936,10.999
		c0.377,0.55,0.755,1.054,1.105,1.508c1.457,1.87,2.657,2.993,2.657,2.993s1.912-1.697,3.841-4.483
		c0.429-0.636,0.866-1.321,1.286-2.058c1.414-2.521,2.571-5.599,2.571-8.959C138.981,24.629,135.535,21.518,131.283,21.518z
		 M131.344,24.929c2.271,0,4.115,1.843,4.115,4.116c0,2.278-1.845,4.123-4.115,4.123c-2.28,0-4.124-1.845-4.124-4.123
		C127.22,26.771,129.063,24.929,131.344,24.929z"/>
	<path fill="#4EA49E" d="M127.392,41.25l-7.904,1.811c-0.42-0.472-0.797-0.969-1.156-1.492l8.023-1.842
		C126.697,40.266,127.048,40.771,127.392,41.25z"/>
	<path fill="#4EA49E" d="M146.405,36.889l-5.298,1.217l2.323,4.534c-0.377,0.481-0.798,0.936-1.244,1.354l-2.802-5.494l-2.683,0.617
		c0.385-0.635,0.762-1.312,1.122-2.023l8.967-2.057C146.705,35.67,146.569,36.289,146.405,36.889z"/>
	<g>
		<path fill="#4EA49E" d="M143.431,42.64c-0.377,0.481-0.798,0.936-1.244,1.354L143.431,42.64z"/>
	</g>
</g>
<g>
	<path fill="#EDE68D" d="M32.409,196.257l5.298-1.217c-0.582,2.134-1.611,4.089-2.975,5.751L32.409,196.257z"/>
	<path fill="#EDE68D" d="M38.263,190.89c0,0.781-0.06,1.553-0.171,2.299l-8.967,2.057c-0.36,0.712-0.737,1.389-1.122,2.023
		l2.683-0.617l2.802,5.494c-2.819,2.735-6.659,4.425-10.903,4.425c-4.706,0-8.923-2.075-11.796-5.358l7.904-1.811
		c-0.344-0.479-0.694-0.984-1.037-1.523l-8.023,1.842c-1.724-2.512-2.727-5.555-2.727-8.83c0-8.657,7.021-15.68,15.679-15.68
		S38.263,182.232,38.263,190.89z"/>
	<path fill="#4EA49E" d="M22.584,179.669c-4.251,0-7.698,3.111-7.698,6.943c0,4.227,1.98,8.152,3.936,10.999
		c0.377,0.55,0.755,1.054,1.105,1.508c1.457,1.87,2.657,2.993,2.657,2.993s1.912-1.697,3.841-4.483
		c0.429-0.636,0.866-1.321,1.286-2.058c1.414-2.521,2.571-5.599,2.571-8.959C30.283,182.78,26.836,179.669,22.584,179.669z
		 M22.645,183.08c2.271,0,4.115,1.843,4.115,4.116c0,2.278-1.845,4.123-4.115,4.123c-2.28,0-4.124-1.845-4.124-4.123
		C18.521,184.923,20.365,183.08,22.645,183.08z"/>
	<path fill="#4EA49E" d="M18.693,199.401l-7.904,1.811c-0.42-0.472-0.797-0.969-1.156-1.492l8.023-1.842
		C17.999,198.417,18.349,198.923,18.693,199.401z"/>
	<path fill="#4EA49E" d="M37.707,195.04l-5.298,1.217l2.323,4.534c-0.377,0.481-0.798,0.936-1.244,1.354l-2.802-5.494l-2.683,0.617
		c0.385-0.635,0.762-1.312,1.122-2.023l8.967-2.057C38.006,193.821,37.871,194.44,37.707,195.04z"/>
	<g>
		<path fill="#4EA49E" d="M34.732,200.791c-0.377,0.481-0.798,0.936-1.244,1.354L34.732,200.791z"/>
	</g>
</g>
<circle opacity="0.5" fill="#B5F4EE" cx="22.396" cy="243.5" r="24.5"/>
<polygon fill="#FFFFFF" points="38.099,253.546 28.553,244 38.098,234.454 32.441,228.797 22.896,238.343 13.35,228.797 
	7.693,234.454 17.239,244 7.693,253.546 13.349,259.203 22.896,249.656 32.442,259.203 "/>
<circle opacity="0.5" fill="#B5F4EE" cx="192.396" cy="24.5" r="24.5"/>
<polygon fill="#FFFFFF" points="208.099,34.546 198.553,25 208.098,15.454 202.441,9.797 192.896,19.343 183.35,9.797 
	177.693,15.454 187.239,25 177.693,34.546 183.349,40.203 192.896,30.656 202.442,40.203 "/>
</svg>
